<svg xmlns="http://www.w3.org/2000/svg" xmlns:xlink="http://www.w3.org/1999/xlink" width="120" height="119" viewBox="0 0 120 119">
  <defs>
    <filter id="Ellipse_28" x="0" y="0" width="120" height="119" filterUnits="userSpaceOnUse">
      <feOffset input="SourceAlpha"/>
      <feGaussianBlur stdDeviation="10" result="blur"/>
      <feFlood flood-opacity="0.102"/>
      <feComposite operator="in" in2="blur"/>
      <feComposite in="SourceGraphic"/>
    </filter>
    <filter id="Path_4" x="25.692" y="23.109" width="69.9" height="77.844" filterUnits="userSpaceOnUse">
      <feOffset input="SourceAlpha"/>
      <feGaussianBlur stdDeviation="10" result="blur-2"/>
      <feFlood flood-opacity="0.161"/>
      <feComposite operator="in" in2="blur-2"/>
      <feComposite in="SourceGraphic"/>
    </filter>
    <filter id="Path_5" x="13.5" y="12.738" width="91.244" height="93.499" filterUnits="userSpaceOnUse">
      <feOffset input="SourceAlpha"/>
      <feGaussianBlur stdDeviation="10" result="blur-3"/>
      <feFlood flood-opacity="0.161"/>
      <feComposite operator="in" in2="blur-3"/>
      <feComposite in="SourceGraphic"/>
    </filter>
  </defs>
  <g id="Group_122" data-name="Group 122" transform="translate(-420.5 -2276)">
    <g transform="matrix(1, 0, 0, 1, 420.5, 2276)" filter="url(#Ellipse_28)">
      <ellipse id="Ellipse_28-2" data-name="Ellipse 28" cx="29" cy="28.5" rx="29" ry="28.5" transform="translate(31 31)" fill="rgba(255,255,255,0)" stroke="#000" stroke-width="2"/>
    </g>
    <g id="measuring-jug" transform="translate(464 2318.738)">
      <g transform="matrix(1, 0, 0, 1, -43.5, -42.74)" filter="url(#Path_4)">
        <path id="Path_4-2" data-name="Path 4" d="M187.817,172.433a.981.981,0,1,0,0,1.963h6.956v.982a.981.981,0,0,0,1.963,0V159.5a.981.981,0,1,0-1.963,0v.982h-6.956a.981.981,0,1,0,0,1.963h6.956v2.022h-2.987a.981.981,0,1,0,0,1.963h2.987v2.022h-2.987a.981.981,0,1,0,0,1.963h2.987v2.022Zm0,0" transform="translate(-131.14 -105.41)"/>
      </g>
      <g transform="matrix(1, 0, 0, 1, -43.5, -42.74)" filter="url(#Path_5)">
        <path id="Path_5-2" data-name="Path 5" d="M28.184,0a3.568,3.568,0,0,0-3.412,2.552H1.483A.981.981,0,0,0,.769,4.206L5.824,9.568V28.533a4.964,4.964,0,0,0,4.95,4.966H21.635a4.964,4.964,0,0,0,4.95-4.966V3.571a1.6,1.6,0,1,1,3.2,0V16.665a.981.981,0,1,0,1.963,0V3.571A3.571,3.571,0,0,0,28.184,0ZM24.623,28.533a3,3,0,0,1-2.987,3H10.774a3,3,0,0,1-2.987-3V9.178A.982.982,0,0,0,7.519,8.5L3.757,4.514H24.623Zm0,0" transform="translate(43 42.74)"/>
      </g>
    </g>
  </g>
</svg>
